{
  "roof": {
    "status": "on",
    "dip": {
      "1": "0",
      "2": "0",
      "3": "0",
      "4": "0",
      "5": "0",
      "A": "1",
      "B": "0",
      "C": "0",
      "D": "0",
      "E": "0"
    }
  }
}